apple_p = 0.050000000000000003
automaton_size = 20
elite = 0.02
field_h = 32
field_w = 32
fields_count = 100
gbmut = 70
gens = 1000
gsize = 100
mutate_count = 0
mutate_p = 0.14999999999999999
mutation_bp = 0.69999999999999996
mutation_p = 0.070000000000000007
one_point_crossover = 0
recreate_fields = 0
rt_automaton_size = 20
rt_mutate_count = 0
rt_mutate_p = 0.14999999999999999
rt_one_point_crossover = 1
rt_r_x_size = 3
rt_x_size = 8
rt_z_count = 3
steps = 200
x_size = 8
z_count = 3

