digraph G {
0 -> 19;
0 -> 18;
0 -> 17;
0 -> 16;
0 -> 16;
0 -> 16;
0 -> 17;
0 -> 1;
1 -> 0;
1 -> 1;
1 -> 1;
1 -> 19;
1 -> 15;
1 -> 16;
1 -> 14;
1 -> 2;
2 -> 18;
2 -> 19;
2 -> 1;
2 -> 13;
2 -> 2;
2 -> 3;
2 -> 3;
2 -> 3;
3 -> 12;
3 -> 14;
3 -> 13;
3 -> 4;
3 -> 3;
3 -> 0;
3 -> 4;
3 -> 13;
4 -> 11;
4 -> 1;
4 -> 4;
4 -> 10;
4 -> 19;
4 -> 9;
4 -> 5;
4 -> 17;
5 -> 9;
5 -> 16;
5 -> 2;
5 -> 3;
5 -> 9;
5 -> 6;
5 -> 6;
5 -> 14;
6 -> 19;
6 -> 4;
6 -> 19;
6 -> 7;
6 -> 18;
6 -> 19;
6 -> 0;
6 -> 7;
7 -> 8;
7 -> 8;
7 -> 7;
7 -> 18;
7 -> 2;
7 -> 4;
7 -> 7;
7 -> 8;
8 -> 0;
8 -> 11;
8 -> 8;
8 -> 1;
8 -> 9;
8 -> 15;
8 -> 8;
8 -> 19;
9 -> 0;
9 -> 4;
9 -> 2;
9 -> 4;
9 -> 18;
9 -> 10;
9 -> 9;
9 -> 13;
10 -> 11;
10 -> 8;
10 -> 19;
10 -> 16;
10 -> 18;
10 -> 8;
10 -> 16;
10 -> 3;
11 -> 8;
11 -> 11;
11 -> 19;
11 -> 16;
11 -> 11;
11 -> 18;
11 -> 16;
11 -> 15;
12 -> 9;
12 -> 2;
12 -> 19;
12 -> 7;
12 -> 4;
12 -> 19;
12 -> 6;
12 -> 8;
13 -> 19;
13 -> 13;
13 -> 19;
13 -> 9;
13 -> 6;
13 -> 4;
13 -> 16;
13 -> 9;
14 -> 18;
14 -> 15;
14 -> 18;
14 -> 9;
14 -> 4;
14 -> 18;
14 -> 16;
14 -> 2;
15 -> 1;
15 -> 0;
15 -> 18;
15 -> 13;
15 -> 4;
15 -> 10;
15 -> 5;
15 -> 7;
16 -> 3;
16 -> 13;
16 -> 18;
16 -> 17;
16 -> 19;
16 -> 18;
16 -> 6;
16 -> 10;
17 -> 3;
17 -> 5;
17 -> 6;
17 -> 11;
17 -> 2;
17 -> 14;
17 -> 7;
17 -> 19;
18 -> 0;
18 -> 16;
18 -> 12;
18 -> 17;
18 -> 5;
18 -> 15;
18 -> 1;
18 -> 15;
19 -> 19;
19 -> 17;
19 -> 16;
19 -> 11;
19 -> 17;
19 -> 13;
19 -> 12;
19 -> 2;
}